MLOps with vetiver 🏺 in Python and R - Version, deploy, and monitor your model with vetiver in R
…
Vetiver, the oil of tranquility, is used as a stabilizing ingredient in perfumery to preserve more volatile fragrances.

The goal of vetiver is to provide fluent tooling to version, deploy, and monitor a trained model.

Build a model

Let’s build a model to predict which Scooby Doo episodes have a real monster and which have a fake monster. 👻

library(tidyverse)
library(arrow)
scooby <- read_feather("scooby-do.arrow")

scooby

# A tibble: 501 × 4
   monster_real year_aired  imdb title                    
 * <fct>             <dbl> <dbl> <chr>                    
 1 fake               1969   8.1 What a Night for a Knight
 2 fake               1969   8.1 A Clue for Scooby Doo    
 3 fake               1969   8   Hassle in the Castle     
 4 fake               1969   7.8 Mine Your Own Business   
 5 fake               1969   7.5 Decoy for a Dognapper    
 6 fake               1969   8.4 What the Hex Going On?   
 7 fake               1969   7.6 Never Ape an Ape Man     
 8 fake               1969   8.2 Foul Play in Funland     
 9 fake               1969   8.1 The Backstage Rage       
10 fake               1969   8   Bedlam in the Big Top    
# … with 491 more rows
…
predict(scooby_endpoint, new_episodes)

Monitor your model

To monitor the statistical properties of your model over time, you will need new data with labels. Let’s say that Scooby Doo airs more episodes starting this year:

scooby_validation <- read_feather("scooby-validation.arrow")
scooby_validation

# A tibble: 100 × 4
   monster_real date_aired year_aired  imdb
   <fct>        <date>          <dbl> <dbl>
 1 fake         2023-01-11       2023   6.2
 2 fake         2023-02-02       2023   5.2
 3 fake         2023-02-11       2023   9  
 4 fake         2023-02-17       2023   6.8
 5 fake         2023-02-27       2023   5.2
 6 fake         2023-03-10       2023   6.4
 7 fake         2023-03-21       2023   5.4
 8 fake         2023-04-06       2023   8.4
 9 fake         2023-05-04       2023   7.4
10 fake         2023-05-20       2023   7.8
# … with 90 more rows
…
